Introduction • profoc
…
Finally, we can inspect and visualize the predictions:

tidy(combination$predictions)
#> # A tibble: 3,168 × 4
#>        t d         p prediction
#>    <int> <chr> <dbl>      <dbl>
#>  1     1 D1     0.01     -2.49 
#>  2     1 D1     0.02     -2.08 
#>  3     1 D1     0.03     -1.82 
#>  4     1 D1     0.04     -1.63 
#>  5     1 D1     0.05     -1.47 
#>  6     1 D1     0.06     -1.33 
#>  7     1 D1     0.07     -1.21 
#>  8     1 D1     0.08     -1.11 
#>  9     1 D1     0.09     -1.01 
#> 10     1 D1     0.1      -0.922
#> # ℹ 3,158 more rows
…
